{
	"info": {
		"_postman_id": "287c3e77-fd59-430f-8c2a-650e68109292",
		"name": "Taller MongoDB V2",
		"schema": "https://schema.getpostman.com/json/collection/v2.1.0/collection.json"
	},
	"item": [
		{
			"name": "createProducto",
			"request": {
				"method": "POST",
				"header": [],
				"body": {
					"mode": "raw",
					"raw": "{\r\n   \"marca\": \"Puma\",\r\n   \"precio\" : 129.90,\r\n   \"usuarios\" : [\r\n        {\r\n            \"id\" : \"dloyola\",\r\n            \"nombre\" : \"David Loyola\",\r\n            \"rol\" : \"admin\"\r\n        },\r\n        {\r\n            \"id\" : \"scaja\",\r\n            \"nombre\" : \"Shashe Caja\",\r\n            \"rol\" : \"system\"\r\n        }\r\n   ]\r\n}",
					"options": {
						"raw": {
							"language": "json"
						}
					}
				},
				"url": {
					"raw": "http://localhost:8080/api/v2/productos",
					"protocol": "http",
					"host": [
						"localhost"
					],
					"port": "8080",
					"path": [
						"api",
						"v2",
						"productos"
					]
				}
			},
			"response": []
		},
		{
			"name": "listProducto",
			"request": {
				"method": "GET",
				"header": [],
				"url": {
					"raw": "http://localhost:8080/api/v2/productos",
					"protocol": "http",
					"host": [
						"localhost"
					],
					"port": "8080",
					"path": [
						"api",
						"v2",
						"productos"
					]
				}
			},
			"response": []
		},
		{
			"name": "getProducto",
			"request": {
				"method": "GET",
				"header": [],
				"url": {
					"raw": "http://localhost:8080/api/v2/productos/60a51f3bd9463f3cf8daca1d",
					"protocol": "http",
					"host": [
						"localhost"
					],
					"port": "8080",
					"path": [
						"api",
						"v2",
						"productos",
						"60a51f3bd9463f3cf8daca1d"
					]
				}
			},
			"response": []
		},
		{
			"name": "updateProducto",
			"request": {
				"method": "PUT",
				"header": [],
				"body": {
					"mode": "raw",
					"raw": "{\r\n    \"marca\": \"Nike\",\r\n    \"precio\": 229.50\r\n}",
					"options": {
						"raw": {
							"language": "json"
						}
					}
				},
				"url": {
					"raw": "http://localhost:8080/api/v2/productos/60a51f3bd9463f3cf8daca1d",
					"protocol": "http",
					"host": [
						"localhost"
					],
					"port": "8080",
					"path": [
						"api",
						"v2",
						"productos",
						"60a51f3bd9463f3cf8daca1d"
					]
				}
			},
			"response": []
		},
		{
			"name": "deleteProducto",
			"request": {
				"method": "DELETE",
				"header": [],
				"body": {
					"mode": "raw",
					"raw": "",
					"options": {
						"raw": {
							"language": "json"
						}
					}
				},
				"url": {
					"raw": "http://localhost:8080/api/v2/productos/60a51f3bd9463f3cf8daca1d",
					"protocol": "http",
					"host": [
						"localhost"
					],
					"port": "8080",
					"path": [
						"api",
						"v2",
						"productos",
						"60a51f3bd9463f3cf8daca1d"
					]
				}
			},
			"response": []
		},
		{
			"name": "listUsersPorProducto",
			"request": {
				"method": "GET",
				"header": [],
				"url": {
					"raw": "http://localhost:8080/api/v2/productos/60a2b55b67921e305473ce71/usuarios",
					"protocol": "http",
					"host": [
						"localhost"
					],
					"port": "8080",
					"path": [
						"api",
						"v2",
						"productos",
						"60a2b55b67921e305473ce71",
						"usuarios"
					]
				}
			},
			"response": []
		}
	]
}